Análisis cluster no jerárquico de los indicadores de salud relacionados con el consumo de alcohol del año 2021 en los estados de US - Subproceso 03 - Análisis exploratorio de datos (EDA)
…
# A tibble: 4 × 3
  n_miss_in_var n_vars pct_vars
          <int>  <int>    <dbl>
1             0      1       10
2             4      4       40
3             5      1       10
4            63      4       40

Code

## Número de `NA` por observación (n y %) 
naniar::miss_case_summary(data)

# A tibble: 163 × 3
    case n_miss pct_miss
   <int>  <int>    <dbl>
 1    28      9       90
 2   152      9       90
 3   156      9       90
 4   160      9       90
 5   161      5       50
 6     1      4       40
 7     6      4       40
 8     8      4       40
 9    10      4       40
10    13      4       40
# ℹ 153 more rows
…
naniar::miss_var_table(data_gender)

# A tibble: 3 × 3
  n_miss_in_var n_vars pct_vars
          <int>  <int>    <dbl>
1             0      5       50
2             1      1       10
3             6      4       40

Code

## Número de `NA` por observación (n y %) 
naniar::miss_case_summary(data_gender)

# A tibble: 106 × 3
    case n_miss pct_miss
   <int>  <int>    <dbl>
 1   105      5       50
 2   101      4       40
 3   102      4       40
 4   103      4       40
 5   104      4       40
 6   106      4       40
 7     1      0        0
 8     2      0        0
 9     3      0        0
10     4      0        0
# ℹ 96 more rows
…
naniar::miss_var_table(data_overall)

# A tibble: 2 × 3
  n_miss_in_var n_vars pct_vars
          <int>  <int>    <dbl>
1             0      5     55.6
2             3      4     44.4

Code

## Número de `NA` por observación (n y %) 
naniar::miss_case_summary(data_overall)

# A tibble: 153 × 3
    case n_miss pct_miss
   <int>  <int>    <dbl>
 1   151      4     44.4
 2   152      4     44.4
 3   153      4     44.4
 4     1      0      0  
 5     2      0      0  
 6     3      0      0  
 7     4      0      0  
 8     5      0      0  
 9     6      0      0  
10     7      0      0  
# ℹ 143 more rows
…
